price_id,name,brand,price_before_discount,price,sku,supplier_code,description,item_url,store,last_update,daruma_code,store_url,store_name,link_id,sales,views,reviews,total_sales,image_url
251,"WD40 412 ML / WD 40 412 ML / 13,9 OZ",WD 40,49500,49500,,,"
                                Pengiriman hanya untuk daerah Jabodetabek dan Pulau Jawa (Via Darat) karena barang berbentuk Aerosol sehingga tidak memungkinkan pengiriman via udara.   WD-40 Size 412 ML / 13,9 OZ
                            ",https://www.tokopedia.com/wd-40specialist/wd40-412-ml-wd-40-412-ml-13-9-oz,tokopedia.com/WD-40 Specialist,01/16/2019 10:13,,tokopedia.com/WD-40 Specialist,"('tokopedia.com/WD-40 Specialist',)",-,863,42718500,178,42718500,https://ecs7.tokopedia.net/img/cache/700/product-1/2018/1/16/9925538/9925538_88317068-3495-46ba-8dfb-17a14627b788_1512_1819
248,WD40 Contact Cleaner WD 40 Contact Cleaner,WD 40,59000,59000,,,"
                                Pengiriman hanya untuk daerah Jabodetabek dan Pulau Jawa (Via Darat) karena barang berbentuk Aerosol sehingga tidak memungkinkan pengiriman via udara.   WD-40 SPECIALIST ELECTRICAL CONTACT CLEANER   Blasts away oil, dirt, flux residue and condensation from sensitive electronics and electrical equipment with pinpoint precision.  It dries quickly, leaves no residue and removes more soil than leading competitors, making it the best at cleaning electrical contacts. Safe to use and 50-state VOC compliant, it's ideal for use on printed circuit boards, controls, switches, precision instruments and electric panels.  * Cleans sensitive electrical equipment * Quick-drying with no messy residue * Safe to use on plastic, rubber and metal * 50-state VOC compliant * NSF Category K2 (#146857)
                            ",https://www.tokopedia.com/wd-40specialist/wd40-contact-cleaner-wd-40-contact-cleaner,tokopedia.com/WD-40 Specialist,01/16/2019 10:13,,tokopedia.com/WD-40 Specialist,"('tokopedia.com/WD-40 Specialist',)",-,576,33984000,88,33984000,https://ecs7.tokopedia.net/img/cache/700/product-1/2018/1/17/9925538/9925538_0ef597d3-c024-4661-843a-62961341b176_1512_1676
252,"WD40 333 ML / WD 40 333 ML / 11,2 OZ",WD 40,40000,40000,,,"
                                Pengiriman hanya untuk daerah Jabodetabek dan Pulau Jawa (Via Darat) karena barang berbentuk Aerosol sehingga tidak memungkinkan pengiriman via udara.   WD-40 Size 333 ML / 11,2 OZ
                            ",https://www.tokopedia.com/wd-40specialist/wd40-333-ml-wd-40-333-ml-11-2-oz,tokopedia.com/WD-40 Specialist,01/16/2019 10:13,,tokopedia.com/WD-40 Specialist,"('tokopedia.com/WD-40 Specialist',)",-,826,33040000,74,33040000,https://ecs7.tokopedia.net/img/cache/700/product-1/2018/1/16/9925538/9925538_059d2146-f79e-4114-b22a-6054d80f0fb5_2048_0.jpg
233,WD 40 Air Duster / WD40 Air Duster,WD 40,105000,105000,,,"
                                Extension tube (pipa merah) tersedia.  Pengiriman hanya untuk daerah Jabodetabek dan Pulau Jawa (Via Darat) karena barang berbentuk Aerosol sehingga tidak memungkinkan pengiriman via udara.   WD-40 SPECIALIST AIR DUSTER DUST FREE REMOVES DUST EASILY  A versatile, easy-to-use product that helps to keep electronics, households, workshops, vehicles clear of dust, wood shavings, sawdust, metal scrapings, dirt crumbs and more. A non-conductive cleaner that is safe to use on electronics.  * Dry powerful blast, removes dust & dirt easily * Non-abrasive, non-corrosive * Safe on all plastics & delicate precision equipment  RECOMMENDED USES: * Camera * Scientific and Lab Equipment  * Computers  * Printers  * Laptop  * Keyboards  * Photo Equipment  * Scanners  * Watches and Clocks  * Copiers  * Phones  * Stereos
                            ",https://www.tokopedia.com/wd-40specialist/wd-40-air-duster-wd40-air-duster,tokopedia.com/WD-40 Specialist,01/16/2019 10:13,,tokopedia.com/WD-40 Specialist,"('tokopedia.com/WD-40 Specialist',)",-,187,19635000,50,19635000,https://ecs7.tokopedia.net/img/cache/700/product-1/2018/3/12/9925538/9925538_ce8e6141-ac25-4ee2-8582-bf698b50ea9d_1452_1513
246,WD40 White Lithium Grease / WD 40 White Lithium Grease,WD 40,59000,59000,,,"
                                Pengiriman hanya untuk daerah Jabodetabek dan Pulau Jawa (Via Darat) karena barang berbentuk Aerosol sehingga tidak memungkinkan pengiriman via udara.   Tersedia juga WD-40 SPECIALIST CLEAR GREASE untuk anda yang ingin hasil lebih bersih. https://www.tokopedia.com/wd-40specialist/wd40-grease-clear-wd-40-grease-clear-grease?  WD-40 SPECIALIST WHITE LITHIUM GREASE   WD-40 SPECIALIST PROTECTIVE WHITE LITHIUM GREASE is ideal for metal-to-metal applications that require heavy-duty lubrication and protection against rust and corrosion. Our white lithium grease sprays on evenly as a liquid and sets dry for a thick, protective coating that won't run off. Effective in a temperature range from 0 F to 300 F, WD-40 Specialist White Lithium Grease provides unbeatable protection with long-lasting lubrication on auto hinges, gears, sprockets, outdoor hinges, latches, overhead door tracks, pulleys, cables and guide rails. It's also excellent for lubricating equipment before placing in storage, and is 50-state VOC compliant.
                            ",https://www.tokopedia.com/wd-40specialist/wd40-white-lithium-grease-wd-40-white-lithium-grease,tokopedia.com/WD-40 Specialist,01/16/2019 10:13,,tokopedia.com/WD-40 Specialist,"('tokopedia.com/WD-40 Specialist',)",-,300,17700000,113,17700000,https://ecs7.tokopedia.net/img/cache/700/product-1/2018/1/17/9925538/9925538_20de7c4d-9155-4f83-bdb5-5092c4f6913d_1455_1572
253,"WD40 191 ML WD 40 191 ML / 6,5 OZ",WD 40,30000,30000,,,"
                                Pengiriman hanya untuk daerah Jabodetabek dan Pulau Jawa (Via Darat) karena barang berbentuk Aerosol sehingga tidak memungkinkan pengiriman via udara.   WD-40 Size 191 ML / 6,5 OZ
                            ",https://www.tokopedia.com/wd-40specialist/wd40-191-ml-wd-40-191-ml-6-5-oz-1,tokopedia.com/WD-40 Specialist,01/16/2019 10:13,,tokopedia.com/WD-40 Specialist,"('tokopedia.com/WD-40 Specialist',)",-,503,15090000,42,15090000,https://ecs7.tokopedia.net/img/cache/700/product-1/2018/1/16/9925538/9925538_caf1dfc6-f696-493f-94bd-922779c88d56_2048_0.jpg
241,WD40 Chain Lube / WD40 Pelumas Rantai /WD 40 Chain Lube/Pelumas Rantai,WD 40,67000,67000,,,"
                                Extension tube (pipa merah) tersedia.  Pengiriman hanya untuk daerah Jabodetabek dan Pulau Jawa (Via Darat) karena barang berbentuk Aerosol sehingga tidak memungkinkan pengiriman via udara.   WD-40 SPECIALIST CHAIN LUBE  WD-40 SPECIALIST CHAIN LUBE provides lasting lubrication and protection for your chain and is O, X, Z ring compatible. Its exceptional long lasting action makes it particularly suitable for dry conditions. Its also quick drying and provides outstanding anti-fling properties. Regular use helps maintain the performance and life of your chain.  Product Benefits: * Outstanding anti-fling properties * Long lasting lubrication * Maintains performance of chains Recommended For: * Chains * Drive-trains * O, X and Z Rings
                            ",https://www.tokopedia.com/wd-40specialist/wd40-chain-lube-wd40-pelumas-rantai-wd-40-chain-lube-pelumas-rantai,tokopedia.com/WD-40 Specialist,01/16/2019 10:13,,tokopedia.com/WD-40 Specialist,"('tokopedia.com/WD-40 Specialist',)",-,215,14405000,87,14405000,https://ecs7.tokopedia.net/img/cache/700/product-1/2018/2/19/9925538/9925538_78bd1096-8665-49ba-8086-0907b971a053_1490_1744
245,WD40 Silicone Lubricant / WD 40 Silicone Lubricant,WD 40,60000,60000,,,"
                                Pengiriman hanya untuk daerah Jabodetabek dan Pulau Jawa (Via Darat) karena barang berbentuk Aerosol sehingga tidak memungkinkan pengiriman via udara.   WD-40 SPECIALIST  SILICONE LUBRICANT   WD-40 SPECIALIST SILICONE LUBRICANT safely lubricates, waterproofs and protects metal and non-metal surfaces, including rubber, plastic and vinyl better than leading competitors. Our silicone spray dries fast and leaves a clear, non-staining film that doesn't stick or make a mess, so it won't attract dirt. Effective in a temperature range from -100F to 500F, it's ideal for use on cables, pulleys, guide rails, valves, linkages, hinges, locks and more, and is 50-state VOC compliant.
                            ",https://www.tokopedia.com/wd-40specialist/wd40-silicone-lubricant-wd-40-silicone-lubricant,tokopedia.com/WD-40 Specialist,01/16/2019 10:13,,tokopedia.com/WD-40 Specialist,"('tokopedia.com/WD-40 Specialist',)",-,216,12960000,81,12960000,https://ecs7.tokopedia.net/img/cache/700/product-1/2018/1/17/9925538/9925538_4c239cad-f86d-4203-8c07-bdddad1d6bf7_1455_1479
249,WD40 Smart Straw  WD 40 Smart Straw  400 ML,WD 40,95000,95000,,,"
                                Pengiriman hanya untuk daerah Jabodetabek dan Pulau Jawa (Via Darat) karena barang berbentuk Aerosol sehingga tidak memungkinkan pengiriman via udara.   WD-40 Smart Straw 2 way spray lubricant 400 ML NEVER LOSE THE STRAW AGAIN PERMANENTLY ATTACHED SMART STRAW SPRAYS 2 WAYS FLIP UP FOR STREAM, DOWN FOR SPRAY THOUSANDS OF USES
                            ",https://www.tokopedia.com/wd-40specialist/wd40-smart-straw-wd-40-smart-straw-400-ml,tokopedia.com/WD-40 Specialist,01/16/2019 10:13,,tokopedia.com/WD-40 Specialist,"('tokopedia.com/WD-40 Specialist',)",-,96,9120000,44,9120000,https://ecs7.tokopedia.net/img/cache/700/product-1/2018/1/17/252440472/252440472_b72e8260-b9f0-43cc-a3da-86807e9cb6c1_1118_1491.jpg
247,WD40 Dry Lube WD 40 Dry Lube,WD 40,45000,45000,,,"
                                Pengiriman hanya untuk daerah Jabodetabek dan Pulau Jawa (Via Darat) karena barang berbentuk Aerosol sehingga tidak memungkinkan pengiriman via udara.   WD-40 SPECIALIST DRY LUBE  WD-40 SPECIALIST DIRT & DUST RESISTANT DRY LUBE PTFE SPRAY lubricates and provides superior long-lasting corrosion protection with no oily residue. It dries quickly and resists dirt, dust and oil. WD-40 Specialist Dirt & Dust Resistant Dry Lube PTFE Spray reduces friction and wear on blades and bits, door and window tracks, slides, conveyor belts, rollers, hinges, power tools and equipment. Our dry lubricant is also ideal for releasing molded parts, and it's 50-state VOC compliant.  * Reduces friction and wear * Won't attract dirt, dust or oil * Ideal for releasing molded parts * 50-state VOC compliant * NSF Category H2 (#146856)
                            ",https://www.tokopedia.com/wd-40specialist/wd40-dry-lube-wd-40-dry-lube,tokopedia.com/WD-40 Specialist,01/16/2019 10:13,,tokopedia.com/WD-40 Specialist,"('tokopedia.com/WD-40 Specialist',)",-,134,6030000,47,6030000,https://ecs7.tokopedia.net/img/cache/700/product-1/2018/11/28/9925538/9925538_5f0a8864-0ea6-4a23-a703-a6e6bdb0d14d_690_720.png
243,"WD40 382 ML / WD 40 382 ML / 12,9 OZ",WD 40,48000,48000,,,"
                                Pengiriman hanya untuk daerah Jabodetabek dan Pulau Jawa (Via Darat) karena barang berbentuk Aerosol sehingga tidak memungkinkan pengiriman via udara.   WD-40 Size 382 ML / 12,9 OZ
                            ",https://www.tokopedia.com/wd-40specialist/wd40-382-ml-wd-40-382-ml-12-9-oz,tokopedia.com/WD-40 Specialist,01/16/2019 10:13,,tokopedia.com/WD-40 Specialist,"('tokopedia.com/WD-40 Specialist',)",-,122,5856000,7,5856000,https://ecs7.tokopedia.net/img/cache/700/product-1/2018/1/20/9925538/9925538_fbe12811-6fd6-4b79-b47c-4b6697dde283_1512_1747
230,WD 40 Air Duster / WD40 Air Duster,WD 40,105000,105000,,,"
                                Extension tube (pipa merah) tersedia.  Pengiriman hanya untuk daerah Jabodetabek dan Pulau Jawa (Via Darat) karena barang berbentuk Aerosol sehingga tidak memungkinkan pengiriman via udara.   WD-40 SPECIALIST AIR DUSTER DUST FREE REMOVES DUST EASILY  A versatile, easy-to-use product that helps to keep electronics, households, workshops, vehicles clear of dust, wood shavings, sawdust, metal scrapings, dirt crumbs and more. A non-conductive cleaner that is safe to use on electronics.  * Dry powerful blast, removes dust & dirt easily * Non-abrasive, non-corrosive * Safe on all plastics & delicate precision equipment  RECOMMENDED USES: * Camera * Scientific and Lab Equipment  * Computers  * Printers  * Laptop  * Keyboards  * Photo Equipment  * Scanners  * Watches and Clocks  * Copiers  * Phones  * Stereos
                            ",https://www.tokopedia.com/wd-40specialist/wd-40-air-duster-wd40-air-duster-2,tokopedia.com/WD-40 Specialist,02/01/2019 08:27,,tokopedia.com/WD-40 Specialist,"('tokopedia.com/WD-40 Specialist',)",-,55,954,13,5775000,https://ecs7.tokopedia.net/img/cache/700/product-1/2018/3/12/9925538/9925538_ce8e6141-ac25-4ee2-8582-bf698b50ea9d_1452_1513
240,WD40 Brake & Part Cleaner/ WD 40 Brake & Part Cleaner,WD 40,70000,70000,,,"
                                Pengiriman hanya untuk daerah Jabodetabek dan Pulau Jawa (Via Darat) karena barang berbentuk Aerosol sehingga tidak memungkinkan pengiriman via udara.   WD-40 SPECIALIST BRAKE & PART CLEANER  WD-40 SPECIALIST BRAKE & PART CLEANER FOR RAPID AND SAFE REMOVAL OF BRAKE FLUID, GREASE, OIL AND OTHER CONTAMINANTS FROM BRAKE LININGS, PADS AND DRUMS It is non-staining, leaves no residue and is non-corrosive. Also helps to stop disc brake squeal and eliminate clutch slippage  * Removes oil, grease, dirt and brake fluid * Cleans without disassembling the unit * Safe to use on brake linings, pads and drums  APPLICATIONS: Cleaner for disc brakes, drum brakes and brake calipers
                            ",https://www.tokopedia.com/wd-40specialist/wd40-brake-part-cleaner-wd-40-brake-part-cleaner,tokopedia.com/WD-40 Specialist,01/16/2019 10:13,,tokopedia.com/WD-40 Specialist,"('tokopedia.com/WD-40 Specialist',)",-,78,5460000,32,5460000,https://ecs7.tokopedia.net/img/cache/700/product-1/2018/2/20/9925538/9925538_45ec6dd0-8d0f-40d1-b049-dfc1e6d96fea_1506_2008
235,WD 40 Machine & Engine Degreaser (Heavy Duty),WD 40,60000,60000,,,"
                                Extension tube (pipa merah) tersedia.  Pengiriman hanya untuk daerah Jabodetabek dan Pulau Jawa (Via Darat) karena barang berbentuk Aerosol sehingga tidak memungkinkan pengiriman via udara.   WD-40 SPECIALIST MACHINE & ENGINE DEGREASER (HEAVY DUTY)   WD-40 SPECIALIST MACHINE & ENGINE DEGREASER (HEAVY DUTY) IS A POWERFUL DEGREASING SOLVENT  The deep penetrating formulation effectively removes tough grease, oil, dirt, tar, adhesives and more * Removes tough grease, oil, dirt and grime * Fast acting * Easy to wipe off and rinse with water  APPLICATIONS Cleaner for engine, stroke engine and industrial machinery
                            ",https://www.tokopedia.com/wd-40specialist/wd-40-machine-engine-degreaser-heavy-duty,tokopedia.com/WD-40 Specialist,01/16/2019 10:13,,tokopedia.com/WD-40 Specialist,"('tokopedia.com/WD-40 Specialist',)",-,88,5280000,38,5280000,https://ecs7.tokopedia.net/img/cache/700/product-1/2018/2/20/9925538/9925538_97e4c67e-8328-4963-8fa8-4ee9bda1c94f_1478_1972.jpg
234,WD 40 Belt Dressing / WD40 Belt Dressing,WD 40,43500,43500,,,"
                                Pengiriman hanya untuk daerah Jabodetabek dan Pulau Jawa (Via Darat) karena barang berbentuk Aerosol sehingga tidak memungkinkan pengiriman via udara.   WD-40 SPECIALIST BELT DRESSING EXTENDS BELT LIFE WHILE PROVIDING BETTER GRIP AND TRACTION FOR ALL TYPES OF BELTS  Penetrates the cord fibers of V belts to restore pliability and flexibility, and helps to eliminate squeaking and slipping * Eliminates squeaking and slipping * Restores belts' pliability and flexibility * Extends belt life  APPLICATIONS: Lubricant for V, flat and cogged belts
                            ",https://www.tokopedia.com/wd-40specialist/wd-40-belt-dressing-wd40-belt-dressing,tokopedia.com/WD-40 Specialist,01/16/2019 10:13,,tokopedia.com/WD-40 Specialist,"('tokopedia.com/WD-40 Specialist',)",-,107,4654500,41,4654500,https://ecs7.tokopedia.net/img/cache/700/product-1/2018/11/28/9925538/9925538_35a32804-15b5-429d-a23d-de6f3680006c_688_870.png
244,WD40 Degreaser / WD 40 Degreaser,WD 40,50000,50000,,,"
                                Extension tube (pipa merah) tersedia.   Pengiriman hanya untuk daerah Jabodetabek dan Pulau Jawa (Via Darat) karena barang berbentuk Aerosol sehingga tidak memungkinkan pengiriman via udara.   WD-40 SPECIALIST FAST ACTING DEGREASER   WD-40 SPECIALIST FAST ACTING DEGREASER FOAMING SPRAY makes equipment run smoother, last longer and look like new. With deep foaming penetrating action and a powerful stream that sprays up to five feet, it quickly removes grease, oil, dirt and grime. In ASTM tests, WD-40 Specialist Machine & Engine Degreaser Foaming Spray outperforms the leading competitors. It's 50-state VOC compliant and is an ideal engine cleaner and industrial degreaser for use on auto and truck engines, tractors, forklifts, gears and chains, industrial machinery, farm and power equipment and other metal tools.  * Water-Based formula produces deep foaming penetrating action * Removes grease, oil, dirt and grime * Sprays up to five feet * 50-state VOC compliant * NSF Category C1 (#146737)
                            ",https://www.tokopedia.com/wd-40specialist/wd40-degreaser-wd-40-degreaser,tokopedia.com/WD-40 Specialist,01/16/2019 10:13,,tokopedia.com/WD-40 Specialist,"('tokopedia.com/WD-40 Specialist',)",-,76,3800000,28,3800000,https://ecs7.tokopedia.net/img/cache/700/product-1/2018/1/17/9925538/9925538_c13e09e9-9807-4dbc-bcb9-0f6e97051de8_1512_1750
250,"WD40 Gallon / WD 40 Gallon 3,875 Liter",WD 40,335000,335000,,,"
                                Pengiriman hanya untuk daerah Jabodetabek dan Pulau Jawa (Via Darat) karena barang berbentuk cairan sehingga tidak memungkinkan pengiriman via udara.  WD-40 Size 1 Gallon / 3,875 Liter
                            ",https://www.tokopedia.com/wd-40specialist/wd40-gallon-wd-40-gallon-3-875-liter,tokopedia.com/WD-40 Specialist,01/16/2019 10:13,,tokopedia.com/WD-40 Specialist,"('tokopedia.com/WD-40 Specialist',)",-,8,2680000,3,2680000,https://ecs7.tokopedia.net/img/cache/700/product-1/2018/1/16/9925538/9925538_36dc9a04-3e6d-4151-a074-730ec1e6d01c_1961_2953
237,WD40 Carburator Cleaner / WD 40 Carburator Cleaner,WD 40,60000,60000,,,"
                                Pengiriman hanya untuk daerah Jabodetabek dan Pulau Jawa (Via Darat) karena barang berbentuk Aerosol sehingga tidak memungkinkan pengiriman via udara.   WD-40 SPECIALIST THROTTLE BODY, CARB & CHOKE CLEANER  WD-40 SPECIALIST THROTTLE BODY, CARB & CHOKE CLEANER FORMULATED FOR THE RAPID AND SAFE REMOVAL OF DEPOSITS SUCH AS GUM, SLUDGE AND VARNISH AROUND THE THROTTLE BODY, CARBURETOR AND CHOKE  It maximizes carburetor performance and improves fuel system performance * Cleans gum, dirt, varnish, lead and carbon deposits * Eliminates hard starting, rough idling and stalling * Reduces emissions and fumes  APPLICATIONS Cleaner for throttle body, carburetor and choke
                            ",https://www.tokopedia.com/wd-40specialist/wd40-carburator-cleaner-wd-40-carburator-cleaner,tokopedia.com/WD-40 Specialist,01/16/2019 10:13,,tokopedia.com/WD-40 Specialist,"('tokopedia.com/WD-40 Specialist',)",-,43,2580000,22,2580000,https://ecs7.tokopedia.net/img/cache/700/product-1/2018/2/20/9925538/9925538_2bc76ac7-6005-4d7e-94ec-b125677363e0_1492_1990.jpg
229,WD 40 Air Duster / WD40 Air Duster 1,WD 40,105000,105000,,,"
                                Extension tube (pipa merah) tersedia.  Pengiriman hanya untuk daerah Jabodetabek dan Pulau Jawa (Via Darat) karena barang berbentuk Aerosol sehingga tidak memungkinkan pengiriman via udara.   WD-40 SPECIALIST AIR DUSTER DUST FREE REMOVES DUST EASILY  A versatile, easy-to-use product that helps to keep electronics, households, workshops, vehicles clear of dust, wood shavings, sawdust, metal scrapings, dirt crumbs and more. A non-conductive cleaner that is safe to use on electronics.  * Dry powerful blast, removes dust & dirt easily * Non-abrasive, non-corrosive * Safe on all plastics & delicate precision equipment  RECOMMENDED USES: * Camera * Scientific and Lab Equipment  * Computers in * Printers  * Laptop  * Keyboards  * Photo Equipment  * Scanners  * Watches and Clocks  * Copiers  * Phones  * Stereos
                            ",https://www.tokopedia.com/wd-40specialist/wd-40-air-duster-wd40-air-duster-1,tokopedia.com/WD-40 Specialist,02/01/2019 08:26,,tokopedia.com/WD-40 Specialist,"('tokopedia.com/WD-40 Specialist',)",-,18,633,7,1890000,https://ecs7.tokopedia.net/img/cache/700/product-1/2018/3/12/9925538/9925538_ce8e6141-ac25-4ee2-8582-bf698b50ea9d_1452_1513
232,WD40 Food Grade Silicone Spray/WD 40 Food Grade Silicone Spray,WD 40,120000,120000,,,"
                                Pengiriman hanya untuk daerah Jabodetabek dan Pulau Jawa (Via Darat) karena barang berbentuk Aerosol sehingga tidak memungkinkan pengiriman via udara.   WD-40 SPECIALIST FOOD GRADE SILICONE SPRAY SPECIALLY DESIGNED FOR FOOD INDUSTRY HANDLING APPLICATION AND FOOD PROCESSING Forms a colorless, odorless, non-staining film that lubricates and protects surfaces like plastics, rubber, metal, glass, wood and more.   * NSF"" Certified H1 (Incidental Food Contact) and H2 Registration * For food industry handling application and food processing * Good release and parting agent for food sorting lines, molders etc.  RECOMMENDED USES: * Food Processing & Handling Equipment  * Plastic Mesh Chain  * Roller Chain  * Conveyor Belts & Roller  * Bottling Machinery  * Food Racks * Rings  * Pins, Chutes, Guide Rails  * Rubber mounting & seals  * Pulleys  * Linkages  * Castors  * Bottling machinery
                            ",https://www.tokopedia.com/wd-40specialist/wd40-food-grade-silicone-spray-wd-40-food-grade-silicone-spray,tokopedia.com/WD-40 Specialist,01/16/2019 10:13,,tokopedia.com/WD-40 Specialist,"('tokopedia.com/WD-40 Specialist',)",-,15,1800000,6,1800000,https://ecs7.tokopedia.net/img/cache/700/product-1/2018/5/15/9925538/9925538_2d765b2f-ccea-4d03-9611-0efd2b5b8198_1499_1720.jpg
231,WD40 Rust Remover Soak/WD 40 Rust Remover Soak,WD 40,350000,350000,,,"
                                Pengiriman hanya untuk daerah Jabodetabek dan Pulau Jawa (Via Darat) karena barang berbentuk Aerosol sehingga tidak memungkinkan pengiriman via udara.   DISSOLVES RUST QUICKLY WITHOUT HARMING SURROUNDING PARTS, TRIM, GASKETS OR PAINT.  Restores surfaces to bare metal without scraping, chipping or scrubbing. For light rust, leave parts in 1-3 hours and for heavy rust, leave parts in the rust removal solution overnight.  * Dissolves rust quickly * Non-toxic and biodegradable * Ideal for restoring rusted parts to bare metal * NSF Category P1 (#146753)
                            ",https://www.tokopedia.com/wd-40specialist/wd40-rust-remover-soak-wd-40-rust-remover-soak,tokopedia.com/WD-40 Specialist,02/01/2019 08:26,,tokopedia.com/WD-40 Specialist,"('tokopedia.com/WD-40 Specialist',)",-,5,373,1,1750000,https://ecs7.tokopedia.net/img/cache/700/product-1/2018/5/15/9925538/9925538_b64fd309-ff05-4a22-b1e2-0bcb486a633c_1480_1765.jpg
239,"WD40 Throttle Body,Carb & Choke Cleaner",WD 40,60000,60000,,,"
                                Pengiriman hanya untuk daerah Jabodetabek dan Pulau Jawa (Via Darat) karena barang berbentuk Aerosol sehingga tidak memungkinkan pengiriman via udara.   WD-40 SPECIALIST THROTTLE BODY, CARB & CHOKE CLEANER  WD-40 SPECIALIST THROTTLE BODY, CARB & CHOKE CLEANER FORMULATED FOR THE RAPID AND SAFE REMOVAL OF DEPOSITS SUCH AS GUM, SLUDGE AND VARNISH AROUND THE THROTTLE BODY, CARBURETOR AND CHOKE  It maximizes carburetor performance and improves fuel system performance * Cleans gum, dirt, varnish, lead and carbon deposits * Eliminates hard starting, rough idling and stalling * Reduces emissions and fumes  APPLICATIONS Cleaner for throttle body, carburetor and choke
                            ",https://www.tokopedia.com/wd-40specialist/wd40-throttle-body-carb-choke-cleaner,tokopedia.com/WD-40 Specialist,01/16/2019 10:13,,tokopedia.com/WD-40 Specialist,"('tokopedia.com/WD-40 Specialist',)",-,23,1380000,6,1380000,https://ecs7.tokopedia.net/img/cache/700/product-1/2018/2/20/9925538/9925538_2bc76ac7-6005-4d7e-94ec-b125677363e0_1492_1990.jpg
227,WD40 Grease (Clear) / WD 40 Grease (Clear Grease),WD 40,65000,65000,,,"
                                Pengiriman hanya untuk daerah Jabodetabek dan Pulau Jawa (Via Darat) karena barang berbentuk Aerosol sehingga tidak memungkinkan pengiriman via udara.   WD-40 SPECIALIST  High Performance Clear Spray Grease A PREMIUM QUALITY GREASE FOR LONG LASTING LUBRICATION Non-drip with excellent adhesion and sealing properties to provide resistance to water. Limitless application areas throughout the home, trade and industry.  * Long lasting lubrication for metal surfaces * Excellent adhesion and sealing properties * Excellent corrosion protection and load carry capacity RECOMMENDED USES : * Pulleys  * Gears  * Chains  * Bearings  * Nuts and Bolts  * Screws  * Locks  * Pipes  * Taps  * Moving Equipment  * Machinery  * Welds and Winches  * Conveyors  * Latches  * Pistons  * Motor Pivot Points  * Metal parts  * Catches  * Overhead Door Tracks
                            ",https://www.tokopedia.com/wd-40specialist/wd40-grease-clear-wd-40-grease-clear-grease,tokopedia.com/WD-40 Specialist,02/01/2019 08:26,,tokopedia.com/WD-40 Specialist,"('tokopedia.com/WD-40 Specialist',)",-,18,487,9,1170000,https://ecs7.tokopedia.net/img/cache/700/product-1/2018/10/10/9925538/9925538_ce3d59ac-a1b8-4662-909b-16c2c719b400_1261_1323.jpg
236,WD40 Machine & Engine Degreaser (Heavy Duty),WD 40,60000,60000,,,"
                                Extension tube (pipa merah) tersedia.  Pengiriman hanya untuk daerah Jabodetabek dan Pulau Jawa (Via Darat) karena barang berbentuk Aerosol sehingga tidak memungkinkan pengiriman via udara.   WD-40 SPECIALIST MACHINE & ENGINE DEGREASER (HEAVY DUTY)   WD-40 SPECIALIST MACHINE & ENGINE DEGREASER (HEAVY DUTY) IS A POWERFUL DEGREASING SOLVENT  The deep penetrating formulation effectively removes tough grease, oil, dirt, tar, adhesives and more * Removes tough grease, oil, dirt and grime * Fast acting * Easy to wipe off and rinse with water  APPLICATIONS Cleaner for engine, stroke engine and industrial machinery
                            ",https://www.tokopedia.com/wd-40specialist/wd40-machine-engine-degreaser-heavy-duty-1,tokopedia.com/WD-40 Specialist,01/16/2019 10:13,,tokopedia.com/WD-40 Specialist,"('tokopedia.com/WD-40 Specialist',)",-,13,780000,4,780000,https://ecs7.tokopedia.net/img/cache/700/product-1/2018/2/20/9925538/9925538_97e4c67e-8328-4963-8fa8-4ee9bda1c94f_1478_1972.jpg
238,"WD 40 Throttle Body, Carb & Choke Cleaner",WD 40,60000,60000,,,"
                                Pengiriman hanya untuk daerah Jabodetabek dan Pulau Jawa (Via Darat) karena barang berbentuk Aerosol sehingga tidak memungkinkan pengiriman via udara.   WD-40 SPECIALIST THROTTLE BODY, CARB & CHOKE CLEANER  WD-40 SPECIALIST THROTTLE BODY, CARB & CHOKE CLEANER FORMULATED FOR THE RAPID AND SAFE REMOVAL OF DEPOSITS SUCH AS GUM, SLUDGE AND VARNISH AROUND THE THROTTLE BODY, CARBURETOR AND CHOKE  It maximizes carburetor performance and improves fuel system performance * Cleans gum, dirt, varnish, lead and carbon deposits * Eliminates hard starting, rough idling and stalling * Reduces emissions and fumes  APPLICATIONS Cleaner for throttle body, carburetor and choke
                            ",https://www.tokopedia.com/wd-40specialist/wd-40-throttle-body-carb-choke-cleaner,tokopedia.com/WD-40 Specialist,01/16/2019 10:13,,tokopedia.com/WD-40 Specialist,"('tokopedia.com/WD-40 Specialist',)",-,12,720000,5,720000,https://ecs7.tokopedia.net/img/cache/700/product-1/2018/2/20/9925538/9925538_2bc76ac7-6005-4d7e-94ec-b125677363e0_1492_1990.jpg
224,WD40 Silicone Lubricant + WD 40 Dry Lube Combo Promo,WD 40,95000,95000,,,"
                                Pengiriman hanya untuk daerah Jabodetabek dan Pulau Jawa (Via Darat) karena barang berbentuk Aerosol sehingga tidak memungkinkan pengiriman via udara.   WD-40 SPECIALIST  SILICONE LUBRICANT   WD-40 SPECIALIST SILICONE LUBRICANT safely lubricates, waterproofs and protects metal and non-metal surfaces, including rubber, plastic and vinyl better than leading competitors. Our silicone spray dries fast and leaves a clear, non-staining film that doesn't stick or make a mess, so it won't attract dirt. Effective in a temperature range from -100F to 500F, it's ideal for use on cables, pulleys, guide rails, valves, linkages, hinges, locks and more, and is 50-state VOC compliant.
                            ",https://www.tokopedia.com/wd-40specialist/wd40-silicone-lubricant-wd-40-dry-lube-combo-promo,tokopedia.com/WD-40 Specialist,02/01/2019 08:26,,tokopedia.com/WD-40 Specialist,"('tokopedia.com/WD-40 Specialist',)",-,6,176,3,570000,https://ecs7.tokopedia.net/img/cache/700/product-1/2018/12/19/9925538/9925538_7f5bfcfd-19ab-46ec-8eaf-5499dd6db620_1468_1792.jpg
228,Sprayer WD40 / Spray Applicators,WD 40,75000,75000,,,"
                                WD-40 Applicator / Sprayer WD-40 (Tanpa isi) Sprayer WD-40 sebagai pelengkap dan untuk memudahkan penggunaan pada WD-40 Gallon dan WD-40 Pail, didesign khusus untuk cairan WD-40 multi use product sehingga seal dan membran sprayer tahan terhadap cairan petroleum base oil. Untuk penggunaan WD-40 multi use product dalam jumlah banyak dan berulang akan lebih hemat menggunakan WD-40 kemasan Gallon (3,78 Ltr) atau WD-40 kemasan Pail (18,9 Ltr) dibandingkan menggunakan WD-40 kemasan  Aerosol.
                            ",https://www.tokopedia.com/wd-40specialist/sprayer-wd40-spray-applicators,tokopedia.com/WD-40 Specialist,02/01/2019 08:26,,tokopedia.com/WD-40 Specialist,"('tokopedia.com/WD-40 Specialist',)",-,4,221,0,300000,https://ecs7.tokopedia.net/img/cache/700/product-1/2018/10/10/9925538/9925538_28db8b67-36a4-47d6-bb86-23d84976e9eb_1459_1867.jpg
225,WD40 Cutting Oil/Tapping Fluid / WD 40 Cutting Oil/Tapping Fluid,WD 40,57000,57000,,,"
                                Pengiriman hanya untuk daerah Jabodetabek dan Pulau Jawa (Via Darat) karena barang berbentuk Aerosol sehingga tidak memungkinkan pengiriman via udara.   WD-40 SPECIALIST Cutting Oil / Tapping Fluid SUITABLE FOR USE ON ALL METALS. Designed to prevent pitting and metal seizures, ease mechanical processing of metals, reducing frictional heat accumulation and frictional forces. Reduces cutting/tapping torque and improves cutting/tapping efficiency.   * Provides enhanced lubrication to reduce tip welding * Improves machine finishes and extends tool life  * Contains extreme pressure and anti-wear additives  RECOMMENDED USES: * Tapping * Drilling * Hand Drilling * Milling * Cutting Blade * Threading * Shearing * Thread Cutting * Hand and Power Cutting Equipment * Sawing * Turning * Reaming processes
                            ",https://www.tokopedia.com/wd-40specialist/wd40-cutting-oil-tapping-fluid-wd-40-cutting-oil-tapping-fluid,tokopedia.com/WD-40 Specialist,02/01/2019 08:26,,tokopedia.com/WD-40 Specialist,"('tokopedia.com/WD-40 Specialist',)",-,4,246,3,228000,https://ecs7.tokopedia.net/img/cache/700/product-1/2018/10/10/9925538/9925538_eee825f7-9560-4a47-857d-f1b65d007ad1_1285_1440.jpg
221,WD40 Carburator Cleaner+ME Degreaser (Heavy Duty)+Brake Cleaner,,185000,185000,,,"
                                Pengiriman hanya untuk daerah Jabodetabek dan Pulau Jawa (Via Darat) karena barang berbentuk Aerosol sehingga tidak memungkinkan pengiriman via udara.   * BOLEH PILIH 3 PRODUK WD-40 SPECIALIST YANG LAIN (KECUALI AIR DUSTER, CUTTING OIL, FOOD GRADE SILICONE SPRAY DAN CONTACT CLEANER) BILA     PAKET INI DIRASA ADA YANG KURANG DIMINATI,  * MOHON DICANTUMKAN DI KETERANGAN, PRODUK YANG DIINGINKAN BILA TIDAK ADA KETERANGAN AKAN DIKIRIM     SESUAI DENGAN PAKET STANDARD (CARB CLEANER, ME DEGREASER DAN BRAKE CLEANER).  WD-40 SPECIALIST THROTTLE BODY, CARB & CHOKE CLEANER  WD-40 SPECIALIST THROTTLE BODY, CARB & CHOKE CLEANER FORMULATED FOR THE RAPID AND SAFE REMOVAL OF DEPOSITS SUCH AS GUM, SLUDGE AND VARNISH AROUND THE THROTTLE BODY, CARBURETOR AND CHOKE  It maximizes carburetor performance and improves fuel system performance * Cleans gum, dirt, varnish, lead and carbon deposits * Eliminates hard starting, rough idling and stalling * Reduces emissions and fumes  APPLICATIONS Cleaner for throttle body, carburetor and choke
                            ",https://www.tokopedia.com/wd-40specialist/wd40-carburator-cleaner-me-degreaser-heavy-duty-brake-cleaner,tokopedia.com/WD-40 Specialist,02/01/2019 08:26,,tokopedia.com/WD-40 Specialist,"('tokopedia.com/WD-40 Specialist',)",-,1,62,0,185000,https://ecs7.tokopedia.net/img/cache/700/product-1/2018/12/20/9925538/9925538_48f5a7cb-3cd6-422d-9404-c7823db6d9c0_1458_1595.jpg
222,WD40 Brake & Part Cleaner+ME Degreaser (Heavy Duty)+Carbu Cleaner,,185000,185000,,,"
                                Pengiriman hanya untuk daerah Jabodetabek dan Pulau Jawa (Via Darat) karena barang berbentuk Aerosol sehingga tidak memungkinkan pengiriman via udara.   * BOLEH PILIH 3 PRODUK WD-40 SPECIALIST YANG LAIN (KECUALI AIR DUSTER, CUTTING OIL, FOOD GRADE SILICONE SPRAY DAN CONTACT CLEANER) BILA     PAKET INI DIRASA ADA YANG KURANG DIMINATI,  * MOHON DICANTUMKAN DI KETERANGAN, PRODUK YANG DIINGINKAN BILA TIDAK ADA KETERANGAN AKAN DIKIRIM     SESUAI DENGAN PAKET STANDARD (CARB CLEANER, ME DEGREASER DAN BRAKE CLEANER).   WD-40 SPECIALIST BRAKE & PART CLEANER  WD-40 SPECIALIST BRAKE & PART CLEANER FOR RAPID AND SAFE REMOVAL OF BRAKE FLUID, GREASE, OIL AND OTHER CONTAMINANTS FROM BRAKE LININGS, PADS AND DRUMS It is non-staining, leaves no residue and is non-corrosive. Also helps to stop disc brake squeal and eliminate clutch slippage  * Removes oil, grease, dirt and brake fluid * Cleans without disassembling the unit * Safe to use on brake linings, pads and drums  APPLICATIONS: Cleaner for disc brakes, drum brakes and brake calipers
                            ",https://www.tokopedia.com/wd-40specialist/wd40-brake-part-cleaner-me-degreaser-heavy-duty-carbu-cleaner,tokopedia.com/WD-40 Specialist,02/01/2019 08:26,,tokopedia.com/WD-40 Specialist,"('tokopedia.com/WD-40 Specialist',)",-,1,84,1,185000,https://ecs7.tokopedia.net/img/cache/700/product-1/2018/12/20/9925538/9925538_2cc607b3-122e-4e38-a0e6-8c28e6e31d63_1493_1607.jpg
226,WD40 Cutting Oil / WD 40 Cutting Oil,WD 40,57000,57000,,,"
                                Pengiriman hanya untuk daerah Jabodetabek dan Pulau Jawa (Via Darat) karena barang berbentuk Aerosol sehingga tidak memungkinkan pengiriman via udara.   WD-40 SPECIALIST Cutting Oil / Tapping Fluid SUITABLE FOR USE ON ALL METALS. Designed to prevent pitting and metal seizures, ease mechanical processing of metals, reducing frictional heat accumulation and frictional forces. Reduces cutting/tapping torque and improves cutting/tapping efficiency.   * Provides enhanced lubrication to reduce tip welding * Improves machine finishes and extends tool life  * Contains extreme pressure and anti-wear additives  RECOMMENDED USES: * Tapping * Drilling * Hand Drilling * Milling * Cutting Blade * Threading * Shearing * Thread Cutting * Hand and Power Cutting Equipment * Sawing * Turning * Reaming processes
                            ",https://www.tokopedia.com/wd-40specialist/wd40-cutting-oil-wd-40-cutting-oil,tokopedia.com/WD-40 Specialist,02/01/2019 08:26,,tokopedia.com/WD-40 Specialist,"('tokopedia.com/WD-40 Specialist',)",-,3,155,0,171000,https://ecs7.tokopedia.net/img/cache/700/product-1/2018/10/10/9925538/9925538_eee825f7-9560-4a47-857d-f1b65d007ad1_1285_1440.jpg
242,WD40 Pail / WD 40 Pail / 5 Gallon,WD 40,1600000,1600000,,,"
                                Untuk pemesanan harap inbox terlebih dahulu  karena barang tidak dapat dikirim via Gojek atau Grab, barang akan kami kirim menggunakan kurir kami untuk daerah Jakarta.  Pengiriman hanya untuk daerah Jabodetabek dan Pulau Jawa (Via Darat) karena barang berbentuk Cairan sehingga tidak memungkinkan pengiriman via udara.   WD-40 Size 1 Pail (5 Gallon / 18,9 Ltr)
                            ",https://www.tokopedia.com/wd-40specialist/wd40-pail-wd-40-pail-5-gallon,tokopedia.com/WD-40 Specialist,01/16/2019 10:13,,tokopedia.com/WD-40 Specialist,"('tokopedia.com/WD-40 Specialist',)",-,0,0,0,0,https://ecs7.tokopedia.net/img/cache/700/product-1/2018/1/20/9925538/9925538_7d825897-1d9d-4b41-a63e-c0fe69605486_1336_1840
223,WD40 Machine & Engine Degreaser (Heavy Duty)+Brake Cleaner+Carb Clean,WD 40,185000,185000,,,"
                                Pengiriman hanya untuk daerah Jabodetabek dan Pulau Jawa (Via Darat) karena barang berbentuk Aerosol sehingga tidak memungkinkan pengiriman via udara.   * BOLEH PILIH 3 PRODUK WD-40 SPECIALIST YANG LAIN (KECUALI AIR DUSTER, CUTTING OIL, FOOD GRADE SILICONE SPRAY DAN CONTACT CLEANER) BILA     PAKET INI DIRASA ADA YANG KURANG DIMINATI,  * MOHON DICANTUMKAN DI KETERANGAN, PRODUK YANG DIINGINKAN BILA TIDAK ADA KETERANGAN AKAN DIKIRIM     SESUAI DENGAN PAKET STANDARD (CARB CLEANER, ME DEGREASER DAN BRAKE CLEANER).  WD-40 SPECIALIST MACHINE & ENGINE DEGREASER (HEAVY DUTY)   WD-40 SPECIALIST MACHINE & ENGINE DEGREASER (HEAVY DUTY) IS A POWERFUL DEGREASING SOLVENT  The deep penetrating formulation effectively removes tough grease, oil, dirt, tar, adhesives and more * Removes tough grease, oil, dirt and grime * Fast acting * Easy to wipe off and rinse with water  APPLICATIONS Cleaner for engine, stroke engine and industrial machinery
                            ",https://www.tokopedia.com/wd-40specialist/wd40-machine-engine-degreaser-heavy-duty-brake-cleaner-carb-clean,tokopedia.com/WD-40 Specialist,02/01/2019 08:26,,tokopedia.com/WD-40 Specialist,"('tokopedia.com/WD-40 Specialist',)",-,0,100,0,0,https://ecs7.tokopedia.net/img/cache/700/product-1/2018/12/20/9925538/9925538_07e6eb48-9cf9-4b91-bd28-964829c07457_1493_1586.jpg
