1544059381013	mozrunner::runner	INFO	Running command: "/usr/bin/firefox" "-marionette" "-headless" "-foreground" "-no-remote" "-profile" "/tmp/rust_mozprofile.EVfAHEOiX41J"
*** You are running in headless mode.
1544059388716	Marionette	INFO	Listening on port 36269
1544059388749	Marionette	WARN	TLS certificate errors will be ignored for this session
console.error: BroadcastService: 
  receivedBroadcastMessage: handler for
  remote-settings/monitor_changes
  threw error:
  Message: Error: Polling for changes failed: NetworkError when attempting to fetch resource..
  Stack:
    remoteSettingsFunction/remoteSettings.pollChanges@resource://services-settings/remote-settings.js:721:13

JavaScript warning: https://cdn.freshmarketer.com/179700/477681.js, line 3: unreachable code after return statement
JavaScript warning: https://cdn.tokopedia.net/built/assets-201811-8c8baccfa9be77773ebd7408c3753ffa.js, line 888: Error: WebGL warning: <SetDimensions>: Can't use WebGL in headless mode (https://bugzil.la/1375585).
JavaScript warning: https://cdn.tokopedia.net/built/assets-201811-8c8baccfa9be77773ebd7408c3753ffa.js, line 888: Error: WebGL warning: <SetDimensions>: Failed to create WebGL context: WebGL creation failed: 
* Can't use WebGL in headless mode (https://bugzil.la/1375585).
JavaScript warning: https://cdn.tokopedia.net/built/assets-201811-8c8baccfa9be77773ebd7408c3753ffa.js, line 888: Error: WebGL warning: <SetDimensions>: Can't use WebGL in headless mode (https://bugzil.la/1375585).
JavaScript warning: https://cdn.tokopedia.net/built/assets-201811-8c8baccfa9be77773ebd7408c3753ffa.js, line 888: Error: WebGL warning: <SetDimensions>: Failed to create WebGL context: WebGL creation failed: 
* Can't use WebGL in headless mode (https://bugzil.la/1375585).
JavaScript error: https://cdn.tokopedia.net/built/assets-201811-8c8baccfa9be77773ebd7408c3753ffa.js, line 888: SyntaxError: JSON.parse: unexpected character at line 1 column 2 of the JSON data
JavaScript warning: https://ecs7.tokopedia.net/scripts/global.fingerprintjs2.1.4.2.min.js, line 1: Error: WebGL warning: <SetDimensions>: Can't use WebGL in headless mode (https://bugzil.la/1375585).
JavaScript warning: https://ecs7.tokopedia.net/scripts/global.fingerprintjs2.1.4.2.min.js, line 1: Error: WebGL warning: <SetDimensions>: Failed to create WebGL context: WebGL creation failed: 
* Can't use WebGL in headless mode (https://bugzil.la/1375585).
JavaScript warning: https://ecs7.tokopedia.net/scripts/global.fingerprintjs2.1.4.2.min.js, line 1: Error: WebGL warning: <SetDimensions>: Can't use WebGL in headless mode (https://bugzil.la/1375585).
JavaScript warning: https://ecs7.tokopedia.net/scripts/global.fingerprintjs2.1.4.2.min.js, line 1: Error: WebGL warning: <SetDimensions>: Failed to create WebGL context: WebGL creation failed: 
* Can't use WebGL in headless mode (https://bugzil.la/1375585).
JavaScript warning: https://cdn.tokopedia.net/built/5491c7b07e8e26e789c3566ee4a966dc.js, line 59: Error: WebGL warning: <SetDimensions>: Can't use WebGL in headless mode (https://bugzil.la/1375585).
JavaScript warning: https://cdn.tokopedia.net/built/5491c7b07e8e26e789c3566ee4a966dc.js, line 59: Error: WebGL warning: <SetDimensions>: Failed to create WebGL context: WebGL creation failed: 
* Can't use WebGL in headless mode (https://bugzil.la/1375585).
JavaScript warning: https://cdn.tokopedia.net/built/5491c7b07e8e26e789c3566ee4a966dc.js, line 59: Error: WebGL warning: <SetDimensions>: Can't use WebGL in headless mode (https://bugzil.la/1375585).
JavaScript warning: https://cdn.tokopedia.net/built/5491c7b07e8e26e789c3566ee4a966dc.js, line 59: Error: WebGL warning: <SetDimensions>: Failed to create WebGL context: WebGL creation failed: 
* Can't use WebGL in headless mode (https://bugzil.la/1375585).
JavaScript warning: https://ecs7.tokopedia.net/scripts/global.fingerprintjs2.1.4.2.min.js, line 1: Error: WebGL warning: <SetDimensions>: Can't use WebGL in headless mode (https://bugzil.la/1375585).
JavaScript warning: https://ecs7.tokopedia.net/scripts/global.fingerprintjs2.1.4.2.min.js, line 1: Error: WebGL warning: <SetDimensions>: Failed to create WebGL context: WebGL creation failed: 
* Can't use WebGL in headless mode (https://bugzil.la/1375585).
JavaScript warning: https://ecs7.tokopedia.net/scripts/global.fingerprintjs2.1.4.2.min.js, line 1: Error: WebGL warning: <SetDimensions>: Can't use WebGL in headless mode (https://bugzil.la/1375585).
JavaScript warning: https://ecs7.tokopedia.net/scripts/global.fingerprintjs2.1.4.2.min.js, line 1: Error: WebGL warning: <SetDimensions>: Failed to create WebGL context: WebGL creation failed: 
* Can't use WebGL in headless mode (https://bugzil.la/1375585).
1544059597728	Marionette	INFO	Stopped listening on port 36269
JavaScript error: resource://gre/modules/WebProgressChild.jsm, line 58: TypeError: this.mm.content is null
JavaScript error: resource://gre/modules/WebProgressChild.jsm, line 58: TypeError: this.mm.content is null
1544059728976	mozrunner::runner	INFO	Running command: "/usr/bin/firefox" "-marionette" "-headless" "-foreground" "-no-remote" "-profile" "/tmp/rust_mozprofile.Cidfps6tMGq8"
*** You are running in headless mode.
1544059734347	Marionette	INFO	Listening on port 40685
1544059734420	Marionette	WARN	TLS certificate errors will be ignored for this session
console.error: BroadcastService: 
  receivedBroadcastMessage: handler for
  remote-settings/monitor_changes
  threw error:
  Message: Error: Polling for changes failed: NetworkError when attempting to fetch resource..
  Stack:
    remoteSettingsFunction/remoteSettings.pollChanges@resource://services-settings/remote-settings.js:721:13

JavaScript warning: https://cdn.freshmarketer.com/179700/477681.js, line 3: unreachable code after return statement
JavaScript warning: https://cdn.tokopedia.net/built/assets-201811-8c8baccfa9be77773ebd7408c3753ffa.js, line 888: Error: WebGL warning: <SetDimensions>: Can't use WebGL in headless mode (https://bugzil.la/1375585).
JavaScript warning: https://cdn.tokopedia.net/built/assets-201811-8c8baccfa9be77773ebd7408c3753ffa.js, line 888: Error: WebGL warning: <SetDimensions>: Failed to create WebGL context: WebGL creation failed: 
* Can't use WebGL in headless mode (https://bugzil.la/1375585).
JavaScript warning: https://cdn.tokopedia.net/built/assets-201811-8c8baccfa9be77773ebd7408c3753ffa.js, line 888: Error: WebGL warning: <SetDimensions>: Can't use WebGL in headless mode (https://bugzil.la/1375585).
JavaScript warning: https://cdn.tokopedia.net/built/assets-201811-8c8baccfa9be77773ebd7408c3753ffa.js, line 888: Error: WebGL warning: <SetDimensions>: Failed to create WebGL context: WebGL creation failed: 
* Can't use WebGL in headless mode (https://bugzil.la/1375585).
JavaScript warning: https://ecs7.tokopedia.net/scripts/global.fingerprintjs2.1.4.2.min.js, line 1: Error: WebGL warning: <SetDimensions>: Can't use WebGL in headless mode (https://bugzil.la/1375585).
JavaScript warning: https://ecs7.tokopedia.net/scripts/global.fingerprintjs2.1.4.2.min.js, line 1: Error: WebGL warning: <SetDimensions>: Failed to create WebGL context: WebGL creation failed: 
* Can't use WebGL in headless mode (https://bugzil.la/1375585).
JavaScript warning: https://ecs7.tokopedia.net/scripts/global.fingerprintjs2.1.4.2.min.js, line 1: Error: WebGL warning: <SetDimensions>: Can't use WebGL in headless mode (https://bugzil.la/1375585).
JavaScript warning: https://ecs7.tokopedia.net/scripts/global.fingerprintjs2.1.4.2.min.js, line 1: Error: WebGL warning: <SetDimensions>: Failed to create WebGL context: WebGL creation failed: 
* Can't use WebGL in headless mode (https://bugzil.la/1375585).
JavaScript error: https://cdn.tokopedia.net/built/assets-201811-8c8baccfa9be77773ebd7408c3753ffa.js, line 888: SyntaxError: JSON.parse: unexpected character at line 1 column 2 of the JSON data
JavaScript warning: https://cdn.tokopedia.net/built/5491c7b07e8e26e789c3566ee4a966dc.js, line 59: Error: WebGL warning: <SetDimensions>: Can't use WebGL in headless mode (https://bugzil.la/1375585).
JavaScript warning: https://cdn.tokopedia.net/built/5491c7b07e8e26e789c3566ee4a966dc.js, line 59: Error: WebGL warning: <SetDimensions>: Failed to create WebGL context: WebGL creation failed: 
* Can't use WebGL in headless mode (https://bugzil.la/1375585).
JavaScript warning: https://cdn.tokopedia.net/built/5491c7b07e8e26e789c3566ee4a966dc.js, line 59: Error: WebGL warning: <SetDimensions>: Can't use WebGL in headless mode (https://bugzil.la/1375585).
JavaScript warning: https://cdn.tokopedia.net/built/5491c7b07e8e26e789c3566ee4a966dc.js, line 59: Error: WebGL warning: <SetDimensions>: Failed to create WebGL context: WebGL creation failed: 
* Can't use WebGL in headless mode (https://bugzil.la/1375585).
JavaScript warning: https://ecs7.tokopedia.net/scripts/global.fingerprintjs2.1.4.2.min.js, line 1: Error: WebGL warning: <SetDimensions>: Can't use WebGL in headless mode (https://bugzil.la/1375585).
JavaScript warning: https://ecs7.tokopedia.net/scripts/global.fingerprintjs2.1.4.2.min.js, line 1: Error: WebGL warning: <SetDimensions>: Failed to create WebGL context: WebGL creation failed: 
* Can't use WebGL in headless mode (https://bugzil.la/1375585).
JavaScript warning: https://ecs7.tokopedia.net/scripts/global.fingerprintjs2.1.4.2.min.js, line 1: Error: WebGL warning: <SetDimensions>: Can't use WebGL in headless mode (https://bugzil.la/1375585).
JavaScript warning: https://ecs7.tokopedia.net/scripts/global.fingerprintjs2.1.4.2.min.js, line 1: Error: WebGL warning: <SetDimensions>: Failed to create WebGL context: WebGL creation failed: 
* Can't use WebGL in headless mode (https://bugzil.la/1375585).
1544059978652	Marionette	INFO	Stopped listening on port 40685
1544060130074	mozrunner::runner	INFO	Running command: "/usr/bin/firefox" "-marionette" "-headless" "-foreground" "-no-remote" "-profile" "/tmp/rust_mozprofile.uAOfT1qwGo7K"
*** You are running in headless mode.
1544060137871	Marionette	INFO	Listening on port 41905
1544060137997	Marionette	WARN	TLS certificate errors will be ignored for this session
console.error: BroadcastService: 
  receivedBroadcastMessage: handler for
  remote-settings/monitor_changes
  threw error:
  Message: Error: Polling for changes failed: NetworkError when attempting to fetch resource..
  Stack:
    remoteSettingsFunction/remoteSettings.pollChanges@resource://services-settings/remote-settings.js:721:13

JavaScript warning: https://cdn.freshmarketer.com/179700/477681.js, line 3: unreachable code after return statement
JavaScript warning: https://cdn.tokopedia.net/built/assets-201811-8c8baccfa9be77773ebd7408c3753ffa.js, line 888: Error: WebGL warning: <SetDimensions>: Can't use WebGL in headless mode (https://bugzil.la/1375585).
JavaScript warning: https://cdn.tokopedia.net/built/assets-201811-8c8baccfa9be77773ebd7408c3753ffa.js, line 888: Error: WebGL warning: <SetDimensions>: Failed to create WebGL context: WebGL creation failed: 
* Can't use WebGL in headless mode (https://bugzil.la/1375585).
JavaScript warning: https://cdn.tokopedia.net/built/assets-201811-8c8baccfa9be77773ebd7408c3753ffa.js, line 888: Error: WebGL warning: <SetDimensions>: Can't use WebGL in headless mode (https://bugzil.la/1375585).
JavaScript warning: https://cdn.tokopedia.net/built/assets-201811-8c8baccfa9be77773ebd7408c3753ffa.js, line 888: Error: WebGL warning: <SetDimensions>: Failed to create WebGL context: WebGL creation failed: 
* Can't use WebGL in headless mode (https://bugzil.la/1375585).
JavaScript error: https://cdn.tokopedia.net/built/assets-201811-8c8baccfa9be77773ebd7408c3753ffa.js, line 888: SyntaxError: JSON.parse: unexpected character at line 1 column 2 of the JSON data
JavaScript warning: https://ecs7.tokopedia.net/scripts/global.fingerprintjs2.1.4.2.min.js, line 1: Error: WebGL warning: <SetDimensions>: Can't use WebGL in headless mode (https://bugzil.la/1375585).
JavaScript warning: https://ecs7.tokopedia.net/scripts/global.fingerprintjs2.1.4.2.min.js, line 1: Error: WebGL warning: <SetDimensions>: Failed to create WebGL context: WebGL creation failed: 
* Can't use WebGL in headless mode (https://bugzil.la/1375585).
JavaScript warning: https://ecs7.tokopedia.net/scripts/global.fingerprintjs2.1.4.2.min.js, line 1: Error: WebGL warning: <SetDimensions>: Can't use WebGL in headless mode (https://bugzil.la/1375585).
JavaScript warning: https://ecs7.tokopedia.net/scripts/global.fingerprintjs2.1.4.2.min.js, line 1: Error: WebGL warning: <SetDimensions>: Failed to create WebGL context: WebGL creation failed: 
* Can't use WebGL in headless mode (https://bugzil.la/1375585).
JavaScript warning: https://cdn.tokopedia.net/built/5491c7b07e8e26e789c3566ee4a966dc.js, line 59: Error: WebGL warning: <SetDimensions>: Can't use WebGL in headless mode (https://bugzil.la/1375585).
JavaScript warning: https://cdn.tokopedia.net/built/5491c7b07e8e26e789c3566ee4a966dc.js, line 59: Error: WebGL warning: <SetDimensions>: Failed to create WebGL context: WebGL creation failed: 
* Can't use WebGL in headless mode (https://bugzil.la/1375585).
JavaScript warning: https://cdn.tokopedia.net/built/5491c7b07e8e26e789c3566ee4a966dc.js, line 59: Error: WebGL warning: <SetDimensions>: Can't use WebGL in headless mode (https://bugzil.la/1375585).
JavaScript warning: https://cdn.tokopedia.net/built/5491c7b07e8e26e789c3566ee4a966dc.js, line 59: Error: WebGL warning: <SetDimensions>: Failed to create WebGL context: WebGL creation failed: 
* Can't use WebGL in headless mode (https://bugzil.la/1375585).
JavaScript warning: https://ecs7.tokopedia.net/scripts/global.fingerprintjs2.1.4.2.min.js, line 1: Error: WebGL warning: <SetDimensions>: Can't use WebGL in headless mode (https://bugzil.la/1375585).
JavaScript warning: https://ecs7.tokopedia.net/scripts/global.fingerprintjs2.1.4.2.min.js, line 1: Error: WebGL warning: <SetDimensions>: Failed to create WebGL context: WebGL creation failed: 
* Can't use WebGL in headless mode (https://bugzil.la/1375585).
JavaScript warning: https://ecs7.tokopedia.net/scripts/global.fingerprintjs2.1.4.2.min.js, line 1: Error: WebGL warning: <SetDimensions>: Can't use WebGL in headless mode (https://bugzil.la/1375585).
JavaScript warning: https://ecs7.tokopedia.net/scripts/global.fingerprintjs2.1.4.2.min.js, line 1: Error: WebGL warning: <SetDimensions>: Failed to create WebGL context: WebGL creation failed: 
* Can't use WebGL in headless mode (https://bugzil.la/1375585).
1544060260866	Marionette	INFO	Stopped listening on port 41905
JavaScript error: , line 0: InvalidStateError: An attempt was made to use an object that is not, or is no longer, usable
JavaScript error: resource://gre/modules/WebProgressChild.jsm, line 58: TypeError: this.mm.content is null
[Parent 7407, Gecko_IOThread] WARNING: pipe error (64): Connection reset by peer: file /build/firefox-4VfQCB/firefox-63.0+build2/ipc/chromium/src/chrome/common/ipc_channel_posix.cc, line 356
