[
{"url": "https://www.perkakasku.com/batu-asah-pisau-tora-8-bt730.html", "title": "Tora 8\" - Batu Asah Pisau", "price_before_discount": "29500", "price": "29500", "sku": "BT730", "brand": "Tora", "model": "8\" -", "mpn": "", "supplier_code": "", "availability": "Siap", "seller": "Perkakasku.com"},
{"url": "https://www.perkakasku.com/batu-asah-honing-kinik-gc220vs-75x8x10-bt484.html", "title": "Kinik GC220VS - 75x8x10 Batu Asah Honing", "price_before_discount": "49500", "price": "49500", "sku": "BT484", "brand": "Kinik", "model": "GC220VS - 75x8x10", "mpn": "", "supplier_code": "", "availability": "Siap", "seller": "Perkakasku.com"},
{"url": "https://www.perkakasku.com/batu-asah-honing-kinik-gc320vs-75x8x10-bt281.html", "title": "Kinik GC320VS - 75x8x10 Batu Asah Honing", "price_before_discount": "49500", "price": "49500", "sku": "BT281", "brand": "Kinik", "model": "GC320VS - 75x8x10", "mpn": "", "supplier_code": "", "availability": "Kosong", "seller": "Perkakasku.com"},
{"url": "https://www.perkakasku.com/batu-asah-honing-kinik-gc600vs-75x8x10-bt485.html", "title": "Kinik GC600VS - 75x8x10 Batu Asah Honing", "price_before_discount": "49500", "price": "49500", "sku": "BT485", "brand": "Kinik", "model": "GC600VS - 75x8x10", "mpn": "", "supplier_code": "", "availability": "Kosong", "seller": "Perkakasku.com"}
][
{"url": "https://www.perkakasku.com/batu-asah-pisau-tora-8-bt730.html", "title": "Tora 8\" - Batu Asah Pisau", "price_before_discount": "29500", "price": "29500", "sku": "BT730", "brand": "Tora", "model": "8\" -", "mpn": "", "supplier_code": "", "availability": "Siap", "seller": "Perkakasku.com"},
{"url": "https://www.perkakasku.com/batu-asah-honing-kinik-gc600vs-75x8x10-bt485.html", "title": "Kinik GC600VS - 75x8x10 Batu Asah Honing", "price_before_discount": "49500", "price": "49500", "sku": "BT485", "brand": "Kinik", "model": "GC600VS - 75x8x10", "mpn": "", "supplier_code": "", "availability": "Kosong", "seller": "Perkakasku.com"},
{"url": "https://www.perkakasku.com/batu-asah-honing-kinik-gc320vs-75x8x10-bt281.html", "title": "Kinik GC320VS - 75x8x10 Batu Asah Honing", "price_before_discount": "49500", "price": "49500", "sku": "BT281", "brand": "Kinik", "model": "GC320VS - 75x8x10", "mpn": "", "supplier_code": "", "availability": "Kosong", "seller": "Perkakasku.com"},
{"url": "https://www.perkakasku.com/batu-asah-honing-kinik-gc220vs-75x8x10-bt484.html", "title": "Kinik GC220VS - 75x8x10 Batu Asah Honing", "price_before_discount": "49500", "price": "49500", "sku": "BT484", "brand": "Kinik", "model": "GC220VS - 75x8x10", "mpn": "", "supplier_code": "", "availability": "Siap", "seller": "Perkakasku.com"}
]